23

3
mXMKAKSb7Y
iO06CExE4N
jV4Zx9Ixrh
1 2 3
1 3 2
2 1 3
1 2 3

1
clsFLIL0pH
1
1

2
8dagCowaZD
HUQ52pDylv
1 2
2 1

6
Zod3o8Lmz2
cM4F82ijdj
VZNTTR2qh0
G7RA7kegHs
bLg3aScQTf
SSOPWcxYOl
2 6 4 1 5 3
3 4 5 1 6 2
5 1 2 6 4 3
6 4 3 2 1 5

6
eJTfEuWNW0
R9pAL8eHZU
QqKQpZt2aY
5Em1K3hjBY
Tnjox4HLiY
bZwFNMUgmH
3 2 6 1 5 4
1 4 6 2 3 5
6 3 5 1 4 2
1 2 5 4 6 3
6 1 5 3 4 2
3 2 6 4 1 5
2 3 5 1 6 4
3 1 6 5 2 4
1 3 4 2 5 6
1 3 6 2 5 4
3 5 2 6 4 1
3 2 5 4 1 6
1 2 5 3 6 4

2
SGpGuNS3r6
7pDZCKmXNo
1 2
1 2
1 2
2 1
2 1
2 1
2 1
2 1
1 2
1 2
2 1

3
j6I9JoYbnR
BLXn3H4ZMc
WED6ifq1WD
2 1 3
1 3 2
3 1 2
3 1 2

6
Pv3srzLEUN
SvNfKlZysi
XCDasvNw95
V4dlvkav0H
kqdTXhpXoQ
o5O8m8lNYB
2 5 1 3 6 4
4 3 6 2 1 5
2 3 5 6 1 4
5 3 1 4 2 6
5 6 4 3 2 1
3 5 4 6 1 2
4 5 1 6 2 3
1 4 3 5 2 6
1 5 4 3 2 6
5 6 1 4 2 3

4
an0Fi3oPuE
6o5vrrbdFt
aX4msGJ86O
00Ukq4oBvJ
4 1 3 2
4 2 1 3
3 1 2 4
4 2 1 3
3 4 1 2
2 1 4 3
2 3 4 1
4 3 1 2
2 4 3 1
1 4 2 3
2 3 1 4
1 4 2 3
1 3 2 4
4 2 1 3

1
FGC2RwNBfy
1
1
1

1
2qq0cSk5cI
1
1
1
1
1
1
1
1

1
4C1U2tudEv
1
1
1
1
1
1
1
1
1
1
1
1
1

2
GIK2yTFMJ5
RnVlXN17wu
2 1
1 2
1 2
1 2
1 2
1 2
2 1
1 2
2 1
1 2
1 2
2 1

3
Iq6QAVVulu
WpXEX2ODhZ
miczssAVZV
1 2 3
2 3 1
3 1 2
2 1 3
1 3 2

1
WcDPuSsR6p
1

5
3V6aZ0wtiR
vzEllKx6lf
jw3dHe3QRh
CUC9p401BQ
svkH3rIrQG
1 3 5 4 2
1 2 5 4 3
2 4 5 1 3

3
HO2ryYuvFo
ILB2PcQAxz
Z6ku1BexiV
3 2 1
2 1 3

6
oFHuXDe26a
FDYUNdqcz9
DZRg0bRFhs
PNdFdek6ux
mrOkB4o9IR
e2VM0Itvyz
3 5 2 1 6 4
6 3 1 4 2 5
5 3 1 2 6 4
4 3 6 2 1 5
3 1 4 5 6 2

7
1qAK5WqNId
cHQhHTPZkU
BInWEsjg5E
NephuTM8UD
AqvLjJIw2o
zvWhgkArZ1
jgXi9YriYV
7 4 1 3 5 6 2
3 6 7 1 5 4 2
5 7 2 1 4 3 6
3 5 2 7 4 1 6
7 5 4 2 1 3 6
1 4 6 5 3 7 2
2 5 3 6 1 4 7
3 2 4 7 1 5 6
4 7 2 3 6 1 5
5 3 7 2 1 6 4

7
s64NhZ0JJ7
MYEFbBS7f9
AvvXcVBZxq
AlI5FKMyws
ncDQsQfUUO
aEBMjfTCet
slJLao1RDE
1 3 2 4 6 7 5

2
KSeALnz7Kt
2Kr4Cnzdgy
2 1
2 1

4
AMEdLACkhz
ogWhhQouM4
Q8JL3dOzgi
ouVEnV5KhC
4 2 3 1
4 2 3 1
2 4 1 3
4 2 1 3
3 2 4 1
1 2 4 3
1 3 4 2
1 2 4 3
4 3 2 1

1
XCwbjXTpZO
1
1
1
1
1
1
1
