20

2
Cam Smith
Billy Babubarel
2 1
1 2
1 2
2 1

2
Cam Oompla
Hank Babubarel
2 1
1 2
2 1
1 2

3
Willy Bojangles
Willy Eden
Willy Anthony
1 2 3
3 2 1

4
Steve Anthony
Timmy Anthony
Steve Buckley
Timmy Buckley
3 2 4 1
2 4 1 3
4 2 1 3
4 3 2 1
1 2 3 4

9
Sam Meyers
Billy Baumgaurt
Cam Baumgaurt
Steve Buckley
Billy Bojangles
Cam Bojangles
Ham Charles
Steve Meyers
Ham Bojangles
2 4 6 9 8 1 5 7 3
6 5 7 4 2 3 1 8 9
8 9 4 3 7 1 2 5 6
5 2 3 8 9 7 6 1 4
2 9 4 3 8 1 7 6 5
8 5 2 7 3 4 6 1 9
2 1 4 6 9 3 7 8 5
8 4 6 3 2 5 7 1 9
3 6 9 8 5 4 1 2 7
7 3 2 6 1 4 5 8 9

4
Cam Oompla
Timmy Meyers
Amadeus Oompla
Hank Oompla
1 3 2 4
3 2 4 1
1 3 4 2
1 2 4 3
3 2 1 4
4 1 3 2
4 1 3 2

10
Sam Charles
Billy Buckley
Steve Bojangles
Willy Oompla
Hank Charles
Timmy Smith
Cam Charles
Ham Buckley
Cam Eden
Sam Baumgaurt
6 3 2 8 10 5 7 1 4 9
4 2 10 7 5 8 9 6 1 3
7 6 9 2 3 4 1 8 5 10

9
Hank Eden
Billy Bojangles
Billy Anthony
Jimmy Oompla
Ham Anthony
Sam Babubarel
Cam Charles
Sam Eden
Timmy Smith
4 1 9 6 8 7 3 5 2
8 4 5 2 3 6 1 9 7

8
Ham Oompla
Willy Bojangles
Jimmy Bojangles
Ham Anthony
Sam Buckley
Willy Anthony
Willy Meyers
Timmy Meyers
2 7 8 4 3 6 5 1
1 2 8 4 6 3 7 5
1 7 3 8 5 4 6 2
6 5 3 1 4 8 2 7

7
Sam Anthony
Timmy Anthony
Sam Baumgaurt
Ham Eden
Billy Oompla
Ham Baumgaurt
Steve Buckley
6 3 2 5 4 1 7
5 4 3 7 6 1 2
2 3 5 4 1 7 6
7 3 1 2 5 6 4
6 4 1 5 3 2 7
3 7 5 1 4 6 2
5 2 3 1 7 6 4

5
Sam Smith
Hank Smith
Amadeus Bojangles
Hank Anthony
Hank Oompla
2 1 4 3 5
2 5 3 4 1
3 1 5 2 4
2 4 3 5 1
4 1 3 5 2
3 2 1 5 4
1 2 4 5 3
2 1 3 4 5
4 2 5 3 1

9
Timmy Babubarel
Willy Buckley
Amadeus Baumgaurt
Willy Eden
Steve Buckley
Steve Eden
Billy Meyers
Amadeus Smith
Timmy Meyers
5 3 6 4 7 8 1 9 2
9 6 5 2 7 4 8 3 1
4 8 9 7 3 2 6 1 5

7
Jimmy Charles
Steve Baumgaurt
Billy Bojangles
Ham Bojangles
Billy Charles
Willy Eden
Willy Anthony
1 6 3 4 5 7 2
2 1 3 5 6 7 4
5 2 4 3 7 1 6
4 6 7 5 3 1 2
6 3 5 2 1 7 4

8
Sam Buckley
Billy Baumgaurt
Cam Baumgaurt
Billy Meyers
Timmy Baumgaurt
Steve Oompla
Jimmy Eden
Sam Meyers
7 3 8 1 2 4 6 5
6 3 8 1 5 2 7 4
6 7 2 8 3 5 1 4
6 4 8 2 5 1 3 7
8 5 7 1 4 2 6 3
5 2 8 1 3 6 4 7

7
Amadeus Buckley
Cam Anthony
Steve Bojangles
Sam Bojangles
Ham Charles
Timmy Babubarel
Timmy Eden
3 7 1 2 4 6 5
4 3 7 6 2 1 5
4 3 6 7 1 5 2
7 1 2 6 3 5 4
1 6 4 2 3 5 7
2 6 1 4 7 5 3
3 2 6 5 1 4 7
2 1 4 6 5 3 7
5 2 7 3 1 4 6
1 7 6 2 4 5 3

3
Billy Meyers
Steve Smith
Steve Meyers
3 2 1
1 2 3
3 1 2
1 2 3
2 1 3
2 1 3

10
Hank Oompla
Billy Charles
Ham Babubarel
Sam Buckley
Cam Buckley
Hank Meyers
Amadeus Baumgaurt
Hank Eden
Willy Bojangles
Cam Eden
2 9 5 3 8 1 4 7 6 10
2 5 1 8 4 10 9 3 7 6
4 3 6 8 1 5 2 9 7 10
1 4 3 2 7 6 9 10 5 8
3 5 1 4 7 10 2 9 6 8
10 1 5 6 9 3 7 2 8 4
5 3 4 2 7 9 1 6 8 10
3 5 7 10 1 8 2 4 9 6
8 10 1 3 4 7 9 2 5 6
2 7 3 5 6 8 10 1 4 9

6
Jimmy Bojangles
Ham Anthony
Hank Meyers
Ham Babubarel
Willy Meyers
Cam Eden
6 4 2 3 1 5
6 1 4 3 2 5
3 5 2 4 1 6
4 2 3 1 5 6
4 3 1 5 2 6
6 2 1 5 3 4
3 5 6 2 1 4
5 2 4 3 6 1

3
Billy Smith
Sam Baumgaurt
Sam Anthony
1 3 2
3 2 1
3 1 2

2
Jimmy Smith
Willy Anthony
1 2
1 2
2 1
1 2
1 2
1 2
2 1
2 1
2 1
